[gd_scene load_steps=7 format=2]

[ext_resource path="res://scripts/attack/attack_3.gd" type="Script" id=1]
[ext_resource path="res://assets/attack/attack_3_1.png" type="Texture" id=2]
[ext_resource path="res://assets/attack/attack_3_3.png" type="Texture" id=3]

[sub_resource type="SpriteFrames" id=1]
animations = [ {
"frames": [ ExtResource( 2 ), ExtResource( 3 ) ],
"loop": false,
"name": "default",
"speed": 0.5
} ]

[sub_resource type="RectangleShape2D" id=2]

[sub_resource type="RectangleShape2D" id=3]
extents = Vector2( 14.56, 11.3534 )

[node name="attack" type="Area2D"]
script = ExtResource( 1 )

[node name="anim" type="AnimatedSprite" parent="."]
position = Vector2( 400, 21 )
frames = SubResource( 1 )

[node name="CollisionShape2D" type="CollisionShape2D" parent="."]
position = Vector2( 400, 22 )
scale = Vector2( 40, 1.5 )
shape = SubResource( 2 )

[node name="VisibilityEnabler2D" type="VisibilityEnabler2D" parent="."]
rect = Rect2( 740, 0, 60, 43 )

[node name="CollisionShape2D2" type="CollisionShape2D" parent="."]
position = Vector2( 770.514, 21.5662 )
scale = Vector2( 2, 2 )
shape = SubResource( 3 )
[connection signal="body_entered" from="." to="." method="_on_attack_body_entered"]
[connection signal="viewport_entered" from="VisibilityEnabler2D" to="." method="_on_VisibilityEnabler2D_viewport_entered"]
