[gd_scene load_steps=6 format=2]

[ext_resource path="res://scripts/attack/square.gd" type="Script" id=1]
[ext_resource path="res://assets/attack/square_1_1.png" type="Texture" id=2]
[ext_resource path="res://assets/attack/square_1_2.png" type="Texture" id=3]
[ext_resource path="res://assets/attack/square_1_3.png" type="Texture" id=4]

[sub_resource type="CircleShape2D" id=1]

[node name="square" type="Area2D"]
script = ExtResource( 1 )

[node name="Sprite 1" type="Sprite" parent="."]
texture = ExtResource( 2 )

[node name="Sprite 2" type="Sprite" parent="."]
texture = ExtResource( 3 )

[node name="Sprite 3" type="Sprite" parent="."]
texture = ExtResource( 4 )

[node name="CollisionShape2D" type="CollisionShape2D" parent="."]
scale = Vector2( 2.5, 2.5 )
shape = SubResource( 1 )

[node name="VisibilityEnabler2D" type="VisibilityEnabler2D" parent="."]
rect = Rect2( -25, -25, 50, 50 )
[connection signal="body_entered" from="." to="." method="_on_square_body_entered"]
[connection signal="viewport_entered" from="VisibilityEnabler2D" to="." method="_on_VisibilityEnabler2D_viewport_entered"]
[connection signal="viewport_exited" from="VisibilityEnabler2D" to="." method="_on_VisibilityEnabler2D_viewport_exited"]
