[gd_scene load_steps=7 format=2]

[ext_resource path="res://assets/player/smoke_1.png" type="Texture" id=1]
[ext_resource path="res://assets/player/smoke_2.png" type="Texture" id=2]
[ext_resource path="res://assets/player/smoke_3.png" type="Texture" id=3]
[ext_resource path="res://assets/player/smoke_tile.png" type="Texture" id=4]

[sub_resource type="SpriteFrames" id=1]
animations = [ {
"frames": [ ExtResource( 1 ), ExtResource( 2 ), ExtResource( 3 ) ],
"loop": true,
"name": "smoke",
"speed": 5.0
} ]

[sub_resource type="Animation" id=2]
resource_name = "smoke animation"
tracks/0/type = "value"
tracks/0/path = NodePath(".:frame")
tracks/0/interp = 1
tracks/0/loop_wrap = true
tracks/0/imported = false
tracks/0/enabled = true
tracks/0/keys = {
"times": PoolRealArray( 0, 0.1, 0.2, 0.3 ),
"transitions": PoolRealArray( 1, 1, 1, 1 ),
"update": 1,
"values": [ 0, 1, 2, 3 ]
}

[node name="smoke animation" type="Node2D"]

[node name="AnimatedSprite" type="AnimatedSprite" parent="."]
visible = false
position = Vector2( 100.198, 24.8549 )
frames = SubResource( 1 )
animation = "smoke"
frame = 2

[node name="Sprite" type="Sprite" parent="."]
texture = ExtResource( 4 )
hframes = 4
frame = 3

[node name="AnimationPlayer" type="AnimationPlayer" parent="."]
root_node = NodePath("../Sprite")
autoplay = "smoke animation"
"anims/smoke animation" = SubResource( 2 )
